…
``` r
# ggram:::clearhistory()

ggplot(cars) + 
  aes(speed, dist) + 
  geom_point()
```

<img src="man/figures/README-unnamed-chunk-6-1.png" width="100%" />

``` r

code_file_to_code_df() |> 
  compute_panel_code()
#> # A tibble: 5,672 × 7
#> # Groups:   row [209]
#>    code    row is_highlighted     x is_character is_code label
#>    <chr> <int> <lgl>          <int> <lgl>        <lgl>   <chr>
#>  1 g         1 FALSE              1 TRUE         TRUE    g    
#>  2 g         1 FALSE              2 TRUE         TRUE    g    
#>  3 p         1 FALSE              3 TRUE         TRUE    p    
#>  4 l         1 FALSE              4 TRUE         TRUE    l    
#>  5 o         1 FALSE              5 TRUE         TRUE    o    
#>  6 t         1 FALSE              6 TRUE         TRUE    t    
#>  7 (         1 FALSE              7 TRUE         TRUE    (    
#>  8 c         1 FALSE              8 TRUE         TRUE    c    
#>  9 a         1 FALSE              9 TRUE         TRUE    a    
#> 10 r         1 FALSE             10 TRUE         TRUE    r    
#> # ℹ 5,662 more rows
…
